﻿{
    "files": [
        { "src": "/src/core/**/*.js", "dest": "/src/core" },
        { "src": "/fonts/ui-grid*", "dest": "/src/fonts" },
        { "src": "/fonts/bootstrap/*", "dest": "/src/fonts/bootstrap" },
        { "src": "/sass/**/*", "dest": "/src/scss" },
        { "src": "/scripts/bootstrap.js", "dest": "/src/assets/libs" },
        { "src": "/scripts/bootstrap.min.js", "dest": "/src/assets/libs" },
        { "src": "/scripts/jquery-2.1.4.js", "dest": "/src/assets/libs" },
        { "src": "/scripts/jquery-2.1.4.min.js", "dest": "/src/assets/libs" },
        { "src": "/scripts/angular.js", "dest": "/src/assets/libs" },
        { "src": "/scripts/angular.min.js", "dest": "/src/assets/libs" },
        { "src": "/scripts/angular-ui-router.js", "dest": "/src/assets/libs/angular" },
        { "src": "/scripts/angular-ui-router.min.js", "dest": "/src/assets/libs/angular" },
        { "src": "/scripts/angular-local-storage.js", "dest": "/src/assets/libs/angular" },
        { "src": "/scripts/i18n/**/*.js", "dest": "/src/assets/libs/angular/i18n" },
        { "src": "/scripts/angular-ui/ui-bootstrap-tpls.js", "dest": "/src/assets/libs/angular" },
        { "src": "/scripts/angular-ui/ui-bootstrap-tpls.min.js", "dest": "/src/assets/libs/angular" },
        { "src": "/scripts/ui-grid.js", "dest": "/src/assets/libs/angular" },
        { "src": "/scripts/ui-grid.min.js", "dest": "/src/assets/libs/angular" },
        { "src": "/content/ui-grid.css", "dest": "/src/css" },
        { "src": "/scripts/angular-moment.js", "dest": "/src/assets/libs/angular" },
        { "src": "/scripts/angular-moment.min.js", "dest": "/src/assets/libs/angular" },
        { "src": "/scripts/moment.js", "dest": "/src/assets/libs" },
        { "src": "/scripts/moment.min.js", "dest": "/src/assets/libs" },
        { "src": "/scripts/datetime-picker/datetime-picker.js", "dest": "/src/assets/libs/angular" },
        { "src": "/scripts/datetime-picker/datetime-picker.min.js", "dest": "/src/assets/libs/angular" },
        { "src": "/content/ng-tags-input.css", "dest": "/src/css" },
        { "src": "/content/ng-tags-input.bootstrap.css", "dest": "/src/css" },
        { "src": "/scripts/ng-tags-input.js", "dest": "/src/assets/libs/angular" },
        { "src": "/scripts/ng-tags-input.modified.js", "dest": "/src/assets/libs/angular" },
        { "src": "/scripts/ng-file-upload.js", "dest": "/src/assets/libs/angular" },
        { "src": "/scripts/ng-sortable.js", "dest": "/src/assets/libs/angular" },
        { "src": "/scripts/ng-sortable.min.js", "dest": "/src/assets/libs/angular" },
        { "src": "/content/ng-sortable.css", "dest": "/src/css" },
        { "src": "/scripts/angular-ui-tree.js", "dest": "/src/assets/libs/angular" },
        { "src": "/scripts/angular-ui-tree.min.js", "dest": "/src/assets/libs/angular" },
        { "src": "/content/angular-ui-tree.min.css", "dest": "/src/css" },
        { "src": "/scripts/d3/d3.js", "dest": "/src/assets/libs" },
        { "src": "/scripts/d3/nv.d3.js", "dest": "/src/assets/libs" },
        { "src": "/content/nv.d3.css", "dest": "/src/css" },
        { "src": "/scripts/d3/angularjs-nvd3-directives.js", "dest": "/src/assets/libs/angular" },
        { "src": "/scripts/d3/angularjs-nvd3-directives.min.js", "dest": "/src/assets/libs/angular" }
    ]
}
